Start marking
[32, 36] [388, 39] [393, 277] [24, 274] 
Intermediate marking
[24, 36] [393, 36] [393, 277] [24, 277] 
Result marking
[0, 0] [369, 0] [369, 241] [0, 241] 
Min distance 0.000000
Max distance 3.000000
