Start marking
[10, 13] [354, 8] [343, 228] [26, 228] 
Intermediate marking
[10, 8] [354, 8] [354, 228] [10, 228] 
Result marking
[0, 0] [344, 0] [344, 220] [0, 220] 
Min distance 0.000000
Max distance 16.000000
