Start marking
[12, 5] [386, 6] [379, 264] [18, 264] 
Intermediate marking
[12, 5] [386, 5] [386, 264] [12, 264] 
Result marking
[0, 0] [374, 0] [374, 259] [0, 259] 
Min distance 0.000000
Max distance 6.000000
