Start marking
[65, 47] [400, 20] [398, 290] [46, 259] 
Intermediate marking
[46, 20] [400, 20] [400, 290] [46, 290] 
Result marking
[0, 0] [354, 0] [354, 270] [0, 270] 
Min distance 0.000000
Max distance 31.000000
