Start marking
[0, 11] [449, 9] [449, 336] [0, 336] 
Intermediate marking
[0, 9] [449, 9] [449, 336] [0, 336] 
Result marking
[0, 0] [449, 0] [449, 327] [0, 327] 
Min distance 0.000000
Max distance 0.000000
