Start marking
[20, 12] [597, 19] [589, 392] [22, 390] 
Intermediate marking
[20, 12] [597, 12] [597, 392] [20, 392] 
Result marking
[0, 0] [577, 0] [577, 380] [0, 380] 
Min distance 0.000000
Max distance 2.828427
