Start marking
[85, 29] [511, 9] [602, 282] [0, 292] 
Intermediate marking
[0, 9] [602, 9] [602, 292] [0, 292] 
Result marking
[0, 0] [602, 0] [602, 283] [0, 283] 
Min distance 0.000000
Max distance 0.000000
