Start marking
[24, 13] [280, 16] [283, 185] [17, 184] 
Intermediate marking
[17, 13] [283, 13] [283, 185] [17, 185] 
Result marking
[0, 0] [266, 0] [266, 172] [0, 172] 
Min distance 0.000000
Max distance 1.000000
