Start marking
[7, 6] [334, 6] [332, 217] [13, 220] 
Intermediate marking
[7, 6] [334, 6] [334, 220] [7, 220] 
Result marking
[0, 0] [327, 0] [327, 214] [0, 214] 
Min distance 0.000000
Max distance 6.000000
