Start marking
[16, 0] [357, 0] [345, 219] [59, 338] 
Intermediate marking
[16, 0] [357, 0] [357, 338] [16, 338] 
Result marking
[0, 0] [341, 0] [341, 338] [0, 338] 
Min distance 0.000000
Max distance 43.000000
