Start marking
[41, 41] [475, 44] [483, 318] [39, 327] 
Intermediate marking
[39, 41] [483, 41] [483, 327] [39, 327] 
Result marking
[0, 0] [444, 0] [444, 286] [0, 286] 
Min distance 0.000000
Max distance 0.000000
