Start marking
[19, 16] [336, 18] [342, 239] [0, 240] 
Intermediate marking
[0, 16] [342, 16] [342, 240] [0, 240] 
Result marking
[0, 0] [342, 0] [342, 224] [0, 224] 
Min distance 0.000000
Max distance 0.000000
