Start marking
[21, 15] [332, 14] [332, 218] [19, 217] 
Intermediate marking
[19, 14] [332, 14] [332, 218] [19, 218] 
Result marking
[0, 0] [313, 0] [313, 204] [0, 204] 
Min distance 0.000000
Max distance 1.000000
