Start marking
[18, 28] [220, 26] [231, 313] [6, 309] 
Intermediate marking
[6, 26] [231, 26] [231, 313] [6, 313] 
Result marking
[0, 0] [225, 0] [225, 287] [0, 287] 
Min distance 0.000000
Max distance 4.000000
