Start marking
[35, 15] [227, 29] [229, 147] [38, 170] 
Intermediate marking
[35, 15] [229, 15] [229, 170] [35, 170] 
Result marking
[0, 0] [194, 0] [194, 155] [0, 155] 
Min distance 0.000000
Max distance 3.000000
