Start marking
[17, 17] [333, 18] [337, 241] [14, 240] 
Intermediate marking
[14, 17] [337, 17] [337, 241] [14, 241] 
Result marking
[0, 0] [323, 0] [323, 224] [0, 224] 
Min distance 0.000000
Max distance 1.000000
