Start marking
[16, 10] [273, 10] [257, 184] [30, 181] 
Intermediate marking
[16, 10] [273, 10] [273, 184] [16, 184] 
Result marking
[0, 0] [257, 0] [257, 174] [0, 174] 
Min distance 0.000000
Max distance 14.317821
