Start marking
[99, 18] [345, 16] [362, 368] [70, 363] 
Intermediate marking
[70, 16] [362, 16] [362, 368] [70, 368] 
Result marking
[0, 0] [292, 0] [292, 352] [0, 352] 
Min distance 0.000000
Max distance 5.000000
